{
	"spider":"./pg.jar",
	"logo":"https://fs-im-kefu.7moor-fs1.com/ly/4d2c3f00-7d4c-11e5-af15-41bf63ae4ea0/1716545739254/fc1b89e152cd4aa28d295107cb6c56c9.gif",
	"warningText": "NSFW",
	"wallpaper": "https://moe.jitsu.top/img/?sort=r18&size=original",
	// "disabled_wallpaper":"http://www.kf666888.cn/api/tvbox/img",
	"disabled_wallpaper":"https://api.mir6.com/api/ecybz",
	"sites":[
		{"key": "豆瓣","name": "NSFW | 1月20日更新","type": 3,"api": "csp_Douban","searchable": 0,"changeable": 1,"indexs":1,"ext": "./lib/douban.json"},
		{"key": "Youtube","name":"Youtube","type":3,"api": "csp_Youtube","searchable": 1,"quickSearch": 0,"changeable": 0,"timeout": 60,"ext":{"token":"./lib/tokenm.json","json":"./lib/youtube.json","type":"直播#新闻#剧集#电影#综艺#纪录片#音乐#体育#动物#风光#放松#4K#HDR#movie#music#documentary#bbc documentary#national geographic documentary","keywords":"排行榜,HOT,TRENDS,热门话题,热门趋势,热门综艺,热门电影,热门电视剧,小姐姐","codecs":"","proxy":"proxy","danmu":true},"style": {"type": "rect","ratio": 1.77}},
		{"key": "AList","name":"Alist","type":3,"api":"csp_AList","searchable":1,"filterable":1,"changeable":1,"timeout":120,"ext":"http://i.ibread.icu:5432/d/Config/conf/alis.json"},
        {"key": "WebDAV","name": "WebDAV","type": 3,"api": "csp_WebDAV","searchable":1,"filterable":1,"changeable":1,"timeout":120,"ext": "http://i.ibread.icu:5432/d/Config/conf/webdav.json","jar": "https://gitlab.com/api/v4/projects/iowt%2FMyConf/repository/files/TVBox%2Fcommon%2FWebdav.jar/raw?ref=main&private_token=glpat-YGogSXgy_qs-UJLzUaFV"},
		{"key": "网盘配置","name": "网盘及彈幕配置","type": 3,"api": "csp_Config","searchable": 0,"changeable": 0,"ext":"./lib/tokenm.json"},
		{"key": "Local","name":"本地","type":3,"api":"csp_Local"},
		{"key": "PushShare","name":"我的资源分享","type":3, "api":"csp_PushShare","searchable":1,"quickSearch":1, "changeable":1, "filterable":0, "timeout":60, "ext":"./lib/tokenm.json$$$http://i.ibread.icu:5432/d/Config/conf/pushnsfwshare.txt$$$db$$$1","style": {"type": "list","ratio": 1.1}},
		{"key": "AliShare","name":"阿里云盘影视分享","type":3,"api":"csp_AliShare","searchable":1,"quickSearch":1, "changeable":1, "filterable":0, "timeout":60, "ext":"./lib/tokenm.json$$$./lib/alishare.txt$$$db$$$1","style": {"type": "list","ratio": 1.1}},
		{"key": "115Share","name":"115云盘分享","type":3,"api":"csp_P115Share","searchable":1,"quickSearch":0, "changeable":0, "filterable":0, "timeout":60, "ext":"./lib/tokenm.json$$$./lib/115share.txt$$$db$$$1","style": {"type": "list","ratio": 1.1}},
		{"key": " UCShare","name":"UC云盘分享","type":3,"api":"csp_UCShare","searchable":1,"quickSearch":0, "changeable":0, "filterable":0, "timeout":60, "ext":"./lib/tokenm.json$$$./lib/ucshare.txt$$$db$$$1","style": {"type": "list","ratio": 1.1}},
		{"key": "AliShareEBook","name":"阿里云盘书籍分享","type":3,"api":"csp_AliShare","searchable":0,"quickSearch":0, "changeable":0, "filterable":0, "timeout":60, "ext":"./lib/tokenm.json$$$./lib/alishare.ebook.txt$$$db$$$1","style": {"type": "list","ratio": 1.1}},
		{"key": "QuarkShare","name":"夸克云盘分享","type":3,"api":"csp_QuarkShare","searchable":0,"quickSearch":0, "changeable":0, "filterable":0, "timeout":60, "ext":"./lib/tokenm.json$$$./lib/quarkshare.txt","style": {"type": "list","ratio": 1.1}},
		{"key": "ThunderShare","name":"迅雷云盘分享","type":3,"api":"csp_ThunderShare","searchable":0,"quickSearch":0, "changeable":0, "filterable":0, "timeout":60, "ext":"./lib/tokenm.json$$$./lib/thundershare.txt","style": {"type": "list","ratio": 1.1}},
		{"key": "PikPakShare","name":"PikPak分享","type":3,"api":"csp_PikPakShare","searchable":1,"quickSearch":1, "changeable":1, "filterable":0, "timeout":60, "ext":"./lib/tokenm.json$$$./lib/pikpakclass.json$$$./lib/pikpakclass.json.txt.gz","style": {"type": "list","ratio": 1.1}},
		
		{"key":"TGYunPanLocal18","name":"TG频道搜索|18","type":3,"api":"csp_TGYunPanLocal","timeout":120, "ext":{"token":"./lib/tokenm.json","json":"./lib/tgsearch.a.json","keywords":"名称,片名,推荐","tgsearch_url": "http://tg.fish2018.us.kg","tgsearch_media_url":"http://127.0.0.1:10199",
		"channellist":"avab01, zuisewang, fuligege4, CosMM18, TPJPCP","proxy":"proxy","danmu":true},"style": {"type": "rect","ratio": 1.77}},
		{"key":"TGYunPan18","name":"TG群组搜索|18","type":3,"api":"csp_TGYunPan","timeout":120, "ext":{"token":"./lib/tokenm.json","json":"./lib/tgsearch.a.json","keywords":"名称,片名,推荐","tgsearch_url": "http://tg.fish2018.us.kg","tgsearch_media_url":"http://127.0.0.1:10199",
		"channellist":"avwmjav|1000,tgsearchers18|1000,QiangJAv|1000,FC2PPV91|1000,avwmjav|1000,avgc5200|1000,madoucn|1000,TGJAV|1000,SeseAnime|1000,AVWUMAYUANPIAN|1000,ribenseyuge1|1000,sdafe4|1000,pikpakziyuan|1000,avpush|1000,wumaAV|1000,wanninai|1000,QBYFCB_VIP|1000,bbw8562|1000,zyfx_0315|1000,jpccav|1000,xpzhenshi|1000,nanrenbang666|1000,PornXOS|1000,wumaav|1000,zhenshipaishe|1000,IPX_AV|1000,cilitu|1000,ljqqyy|1000,madou_77|1000,wuma_liuchu|1000,cctav|1000,ppg1314|1000,CRAVWM12|1000,MDFL88|1000,madoua821|1000,SanJiPian_HanGuo|1000,javdb91|1000,sexlife520|1000","proxy":"noproxy","danmu":true},"style": {"type": "rect","ratio": 1.77}},
		{"key":"TGYunPanSS","name":"TG群组|涩涩网盘","type":3,"api":"csp_TGYunPan","timeout":120, "ext":{"token":"./lib/tokenm.json","json":"./lib/tgsearch.a.json","keywords":"名称,片名,推荐","tgsearch_url": "http://tg.fish2018.us.kg","tgsearch_media_url":"http://127.0.0.1:10199",
		"channellist":"IPX_AV,pikpakziyuan,javdb91,zyfx_0315,cilitu,kc0102,ppg1314,cctav,avpush,avgc5200,ribenseyuge1,SeseAnime,vn666hh,avab01,bbw8562,CCCTAV,CCTAV1,nice_jav_daily,CosMM18","proxy":"noproxy","danmu":true},"style": {"type": "rect","ratio": 1.77}},
		{"key":"TGYunPanSP","name":"TG群组|涩涩视频","type":3,"api":"csp_TGYunPan","timeout":120, "ext":{"token":"./lib/tokenm.json","json":"./lib/tgsearch.a.json","keywords":"名称,片名,推荐","tgsearch_url": "http://tg.fish2018.us.kg","tgsearch_media_url":"http://127.0.0.1:10199",
		"channellist":"AVNVP,Seeyellow,ljqqyy,avwmjav,TPJPCP,avwmjavchat,sdafe4,TGJAV,gtkankan1,fbi2me,tumblrAce,AVnew,javcc,ttxsp,holozon,AVWUMAYUANPIAN,madou_77,wanninai,QiangJAv,xpzhenshi,fuligege4,jpccav,zuisewang,CTHHZY_3,BL666668,MadouVideos,FC2PPV91,fongmi_adult,MDFL88,wuma_liuchu,gaozhong1","proxy":"noproxy","danmu":true},"style": {"type": "rect","ratio": 1.77}},
		{"key":"TGYunPanCG","name":"TG群组|吃瓜黑料","type":3,"api":"csp_TGYunPan","timeout":120, "ext":{"token":"./lib/tokenm.json","json":"./lib/tgsearch.cg.json","keywords":"名称,片名,推荐","tgsearch_url": "http://tg.fish2018.us.kg","tgsearch_media_url":"http://127.0.0.1:10199",
		"channellist":"wwkxa,cgblgw,jingpina,tplrwq","proxy":"noproxy","danmu":true},"style": {"type": "rect","ratio": 1.77}},
		{"key":"TGYunPanCGG","name":"TG群组|眼镜娘","type":3,"api":"csp_TGYunPan","timeout":120, "ext":{"token":"./lib/tokenm.json","json":"./lib/tgsearch.cg.json","keywords":"名称,片名,推荐","tgsearch_url": "http://tg.fish2018.us.kg","tgsearch_media_url":"http://127.0.0.1:10199",
		"channellist":"vvan52313257,resoshare","proxy":"noproxy","danmu":true},"style": {"type": "rect","ratio": 1.77}},

		{"key": "TGYunPanLocal","name": "TG频道搜索 18","type": 3,"api": "csp_TGYunPanLocal","timeout": 120,"ext": {"token": "./lib/tokenm.json","json": "./lib/tgsearch.cg.json","keywords": "名称,片名,推荐","tgsearch_url": "http://tg.fish2018.us.kg","tgsearch_media_url": "http://tg.fish2018.us.kg","channellist": "tgsearchers,alyp_1,guaguale115,hao115,shareAliyun,Aliyun_4K_Movies,ucpanpan,ucquark,ydypzyfx","proxy": "noproxy","danmu": true},"style": {"type": "rect","ratio": 1.77}},
        {"key": "TGYunPan","name": "TG群组搜索18 ","type": 3,"api": "csp_TGYunPan","timeout": 120,"ext": {"token": "./lib/tokenm.json","json": "./lib/tgsearch.cg.json","keywords": "名称,片名,推荐","tgsearch_url": "http://tg.fish2018.us.kg","tgsearch_media_url": "http://tg.fish2018.us.kg","channellist": "tgsearchers,alyp_1,guaguale115,hao115,shareAliyun,Aliyun_4K_Movies,ucpanpan,ucquark,ydypzyfx","proxy": "noproxy","danmu": true},"style": {"type": "rect","ratio": 1.77}},
        {"key": "TGYunPan18pan","name": "TG|涩涩 18","searchable": 1,"changeable": 1,"type": 3,"api": "csp_TGYunPan","timeout": 60,"ext": {"token": "./lib/tokenm.json","json": "tgsearch.a.json","keywords": "名称,片名,推荐","tgsearch_url": "http://tg.fish2018.us.kg","tgsearch_media_url": "http://tg.fish2018.us.kg","channellist": "CosMM18,avpush,ribenseyuge1,cilitu,cctav,ppg1314,avab01,SeseAnime,AVnew,jpccav,PornXOS,CCCTAV","proxy": "noproxy","danmu": true}},

		{"key": "直播转点播","name": "电视|直播","type": 3,"searchable": 0,"api": "./lib/live2vod.js","ext": "http://i.ibread.icu:5432/d/Config/conf/feimaolive.json"},

		{"key": "py_吃瓜大队","name": "吃瓜大队|PY","type": 3,"api": "./py/py_cgdd.py","proxy":"proxy","quickSearch": 1,"searchable": 1,"filterable": 1,"style": {"type": "rect","ratio": 1.485}},
		{"key": "py_18+","name": "黑料|PY","type": 3,"api": "./py/py_黑料.py","searchable": 1,"quickSearch": 1,"filterable": 1,"style": {"type": "rect","ratio": 1.77}},
        {"key": "py_推特","name": "推特|PY","type": 3,"api": "./py/py_推特.py","searchable": 1,"quickSearch": 1,"filterable": 1,"style": {"type": "rect","ratio": 1.77}},
        {"key": "py_浴火社","name": "浴火社|PY","type": 3,"api": "./py/py_浴火社.py","searchable": 1,"quickSearch": 1,"filterable": 1,"style": {"type": "rect","ratio": 1.77}},
		{"key": "py_phu","name": "phu|PY","type": 3,"api": "./py/py_phu.py","searchable": 1,"quickSearch": 1,"filterable": 1,"style": {"type": "rect","ratio": 1.77}},
		{"key": "py_lav","name": "🔴lav|PY","type": 3,"api": "./py/py_lav.py","searchable": 1,"quickSearch": 1,"filterable": 1,"style": {"type": "rect","ratio": 1.77}},
		{"key": "py_Xhm","name": "Xhm|PY","type": 3,"api": "./py/py_Xhm.py","searchable": 1,"quickSearch": 1,"filterable": 1,"style": {"type": "rect","ratio": 1.77}},
		{"key": "py_mp","name": "mp|PY","type": 3,"api": "./py/py_mp.py","searchable": 1,"quickSearch": 1,"filterable": 1,"style": {"type": "rect","ratio": 1.77}},
		{"key": "py_xpg","name": "xpg|PY","type": 3,"api": "./py/py_xpg.py","searchable": 1,"quickSearch": 1,"filterable": 1,"style": {"type": "rect","ratio": 1.77}},


		{"key":"SeHuaTang","name":"色花堂 | 内置🧲","type":3,"api":"csp_SeHuaTang","searchable":1,"quickSearch":1, "changeable":1, "filterable":0, "timeout":120, "ext":"./lib/tokenm.json$$$null$$$proxy","style": {"type": "list","ratio": 1.1}},
		{"key":"Taohuazu","name":"桃花族 | 内置🧲","type":3,"api":"csp_Taohuazu","searchable":1,"quickSearch":1, "changeable":1, "filterable":0, "timeout":120,"ext": "./lib/tokenm.json$$$http://7566ck.cc/$$$proxy","style": {"type": "list","ratio": 1.1}},
		{"key":"JavDb","name":"JavDb | 内置🧲","type":3,"api":"csp_JavDb","searchable":1,"quickSearch":1,"filterable":1,"changeable":1, "timeout":60,"style":{ "type":"rect", "ratio":1.33 },"ext":"./lib/tokenm.json$$$https://javdb.com/$$$proxy"},
		{"key": "Hanime","name": "Hanime | 内置","type": 3,"api": "csp_Hanime","searchable": 1,"timeout":60,"style": {"type": "rect","ratio": 0.68},"ext": "proxy"},
		{"key": "Top888","name": "Top888| 内置","type":3,"api":"csp_Top888","searchable":1,"quickSearch":1, "changeable":1, "filterable":0, "timeout":60, "ext":"$$$proxy","style": {"type": "rect","ratio": 1.5}},
		{"key": "MissAV","name": "MissAV | 内置","type": 3,"api": "csp_Miss","searchable": 1,"timeout":60,"style": {"type": "rect","ratio": 1.777},"ext": "proxy"},
		{"key": "Jable","name": "Jable | 内置","type": 3,"api": "csp_Jable","searchable": 1,"timeout":60,"style": {"type": "rect","ratio": 1.77},"ext": "proxy"},
		{"key": "Xojav","name": "XOJav | 内置","type":3,"api":"csp_Xojav","searchable":1,"quickSearch":1, "changeable":1, "filterable":0, "timeout":60, "ext":"null$$$proxy","style": {"type": "rect","ratio": 1.5}},
		{"key": "玩偶","name": "玩偶 | 内置","type": 3,"api": "csp_Doll","searchable": 1,"timeout":60,"style": {"type": "rect","ratio": 1.309},"ext": "proxy"},
		{"key": "18AV","name": "18AV | 内置","type": 3,"api": "csp_Eighteen","searchable": 1,"timeout":60,"style": {"type": "rect","ratio": 1.485},"ext": "proxy"},
		{"key": "Netflav","name":"Netflav| 内置","type":3,"api":"csp_Netflav","searchable":1,"quickSearch":1, "changeable":1, "filterable":0, "timeout":60, "ext":"https://netflav5.com$$$proxy","style": {"type": "rect","ratio": 1.5}},
		{"key": "Cable","name": "CableAV | 内置","type":3,"api":"csp_Cable","searchable":1,"quickSearch":1, "changeable":1, "filterable":0, "timeout":60, "ext":"proxy","style": {"type": "rect","ratio": 1.5}},

		{"key": "色播","name": "色播🍓直播","type": 3,"api": "./js/色播.js","searchable": 1,"changeable": 0,"style": {"type": "list"}},
		{"key": "色播","name": "色播","type": 3,"api": "./drpy_js/sebo.js","searchable": 1,"changeable": 0},

		{"key":"csp_XYQHiker_stripchat直播","name": "🔞StripChat直播(XYQHiker)","type": 3,"api": "csp_XYQHiker","jar": "./jar/XYQ.jar","searchable": 1,"quickSearch": 0,"filterable": 0,"ext": "./js/stripchat直播.json","style": {"type": "rect","ratio": 1.6}},
		{"key":"csp_XYQHiker","name": "🔞bongacams直播","type": 3,"api": "csp_XYQHiker","jar": "./jar/XYQ.jar","searchable": 1,"quickSearch": 0,"filterable": 0,"ext": "./js/bongacams直播.json","style": {"type": "rect","ratio": 1.6}},
		{"key": "色花堂","name": "色花堂|XBPQ|内置","type": 3,"api": "csp_XBPQ","jar": "./lib/XBPQ.jar","ext": {"页面代理": "127.0.0.1:10172","数组": "<div class=\"img-box cover-md\">&&</h6>","图片": "data-original=\"&&\"","标题": "<h6 class=\"title\">&&</a>","链接": "href=\"&&\"","副标题": "<div class=\"ribbon-top-left\">&&</span>","线路数组": "<div class=\"item line\">&&</div>[排序:线路一>线路二>线路三]","线路标题": ">&&</a>","播放数组": "<div class=\"item line\">&&</div>","影片类型": "<p class=\"sub-title\"&&</p>","简介": "<div class=\"header-left\">&&</div>","播放列表": "<a&&/a>","播放标题": ">&&<","播放链接": "href=\"&&\"","分类": "国产精品$1#日韩亚洲$2#自拍偷拍$15#欧美激情$3#主播视频$16#中文字幕$4#日韩无码$11#动漫成人$14#推荐视频$5#同性人妖$6#欧美大片$7#原创国产$8#制服淫穴$9#换脸AI区$10#三级综艺$12#次元动漫$13","分类url": "https://11gaokk.com/typegaokk/{cateId}_{catePg}.html[https://11gaokk.com/typegaokk/{cateId}.html","搜索url": "https://11gaokk.com/vodsearch/{wd}----------{pg}---.html"}},
		{"key": "pronlulu","name": "pronlulu|XBPQ|外置","type": 3,"api": "csp_XBPQ","jar": "./lib/XBPQ.jar","ext": {"直接播放": "1","嗅探词": ".m3u8#.mp4","分类url": "https://www.pornlulu.com/cat/{cateId}?page={catePg}","分类": "國產自拍$263#中文字幕$48#日本有碼$269國產情色460#日本無碼$270#國產精品$249強姦亂倫$13#歐美精品$260#制服誘惑$92#蘿莉少女$103#成人動漫$274#美女主播$264#亞洲有碼$105#國產主播$268#國產視頻$304#巨乳美乳$93#歐美極品$266#自拍偷拍$28#騎兵有碼$261#無碼專區$254#抖陰視頻$25"}},
		{"key": "黄色仓库","name":"黄色仓库|XBPQ|外置","type":3,"api":"csp_XBPQ","jar":"./lib/XBPQ.jar","style":{"ratio":1.7},"ext": {"主页url":"http://8258ck.cc/","分类url": "http://8258ck.cc/vodtype/{cateId}-{catePg}.html;;zm","搜索url":"http://8258ck.cc/vodsearch/{wd}----------{pg}---.html","简介":"时间：&&<","副标题":"❤️+fa fa-heart\"></i>&&<+🔥+\"fa fa-eye\"></i>&&<","分类": "日韩AV$1#国产系列$2#欧美$3#成人动漫$4#无码中文$8#有码中文$9#日本无码$10#日本有码$7#国产视频$15#欧美高清$21#动漫剧情$22"}},
		{"key": "ppp","name" : "ppp|XBPQ|外置","type":3,"api":"csp_XBPQ","jar":"./lib/XBPQ.jar","searchable": 1,"ext": {"直接播放": "1","图片": "data-src=\"&&\"","分类":"中國AV$china-av#日本片商$japan-producer#素人自拍$amateur#中國$china#台灣$taiwan#日本$japan#東南亞$se-asia#韓國$korea#香港$hongkon#Cosplay$cosplay#主播$streamer#主觀視角$first-person-pov#凌辱$bdsm#劇情$drama#多P$threesome#探花$91-tanhua#流出$released#無碼$uncensored#百合$lesbian#野外露出$exhibitionists#OL$office-lady#動漫$ac#古裝$costume#女僕$maid#學生$student#旗袍$cheongsam#獸耳$kemonomimi#瑜伽褲$yoga-pants#真理褲$dolfin-shorts#空姐$flight-attendant#絲襪$pantyhose#護士$nurse#過膝襪$knee-socks","分类url": "https://ppp.porn/categories/{cateId}/{catePg}/"},"style":{"type":"rect","ratio":1.6}},
		{"key": "13AV","name": "13AV|XBPQ|内置","type": 3,"jar":"./lib/XBPQ.jar","api": "csp_XBPQ","style": {"type": "rect","ratio": 1.5},"ext": {"页面代理": "127.0.0.1:10172","直接播放": "1","图片": "data-original=\"&&\"","标题": "title=\"&&\"","链接": "href=\"&&\"","分类url": "https://13av.com/t/{cateId}?order=&page={catePg}","分类": "日本$日本#国产$國產AV#自拍流出$自拍流出#探花$探花#OnlyFans$OnlyFans"}},
		{"key": "JAV","name": "JAV|XBPQ |外置","type": 3,"api": "csp_XBPQ","jar": "./lib/XBPQ.jar","searchable": 1,"quickSearch": 1,"filterable": 1,"ext": {"热门推荐": "1","直接播放": "0","数组": "<div class=\"card mx-1\">&&</a>[替换:alt=\"watermark\">>空]","图片": "data-src=\"&&\"","标题": "alt=\"&&\"","链接": "href=\"&&\"","搜索url": "https://javmenu.cc/zh/search?wd={wd}&page={pg}","搜索模式": "1","搜索数组": "<div class=\"card mx-1\">&&</a>[替换:alt=\"watermark\">>空]","搜索图片": "data-src=\"&&\"","搜索标题": "alt=\"&&\"","搜索链接": "href=\"&&\"","播放二次截取": "id=\"pills-tabContent\">&&<div class=\"mb-3 col-12\">","播放数组": "<div class=\"single-video\">&&var server_count","状态": "更新：&&</span>","导演": "导演：&&</p>","主演": "主演：&&</p>","简介": "简介：&&</span>","播放列表": "<video id=\"&&</script>","播放标题": "couhe","播放链接": "m3u8.push(\"&&\"","嗅探词": ".m3u8","播放请求头": "","分类": "国产$chinese#五码$uncensored#欧美$western#fc2$fc2#女同性$115#三级字幕$442#91探花$455#偷拍自拍$278#国产传媒$390#台湾涩情$412","分类url": "https://javmenu.cc/zh/{cateId}/online?page={catePg}","筛选": "263"}},
		{"key": "18insta","name": "18INSTA|XBPQ|外置","type": 3,"api": "csp_XBPQ","jar": "./lib/XBPQ.jar","style": {"type": "rect","ratio": 1.77},"ext": {"页面代理": "","数组二次截取": "models\":[&&]","数组": "{&&}","图片":"previewUrlThumbBig:\"https+://static-cdn.strpst.com/+https://static-cdn.strpst.com/&&\"","标题": "username\":\"&&\"","副标题": "id\":\"&&\"","链接": "hlsPlaylist\":\"&&_+_480p.m3u8","分类url": "https://zh.18insta.com/api/front/models?primaryTag=girls&sortBy=viewersRating&userRole=guest&groupId=6&limit=20&filterGroupTags=[[\"{cateId}\"]]&offset=0;;m","直接播放": 1,"播放请求头":"手机","分类": "中国$tagLanguageChinese#乌克兰$tagLanguageUkrainian#日本$tagLanguageJapanese#韩国$tagLanguageKorean#越南$tagLanguageVietnamese#哥伦比亚$tagLanguageColombian"}},
		{"key": "JAVDAY","name": "JAVDAY| XBPQ|外置","type": 3,"api": "csp_XBPQ","jar": "./lib/XBPQ.jar","ext": {"页面代理": "","主页url": "https://javday.tv/","直接播放": "1","数组": "lazy loaded\"&&</a>","图片": "style=\"background-image: url(&&);\"","标题": "class=\"title\"&&</span>","副标题": "class=\"number\">&&</span>","简介": "title\"&&</span>","链接": "href=\"&&\"","分类url": "https://javday.tv/category/{cateId}/page/{catePg}/","分类": "新作上市$new-release#有碼$censored#國產AV$chinese-av#無碼流出$uncensored-leaked#糖心VLOG$txvlog#蘿莉社$luolisheus#HongKongDoll$hongkongdoll"}},
		{"key": "av01","name": "AV01|XBPQ|外置","type": 3,"api": "csp_XBPQ","jar": "./lib/XBPQ.jar","playerType": 2,"style": {"type": "rect","ratio": 1.77},"ext": {"页面代理": "","数组": "class=\"col-sm-6 col-md-4&&class=\"duration&&</div>","直接播放": "1","请求头": "手机","主页url": "https://www.av01.tv/tw","搜索url":"https://www.av01.tv/tw/search/videos?search_query={wd}&page={pg}","链接": "href=\"&&\"","图片": "data-src=\"&&\"","分类url": "https://www.av01.tv/tw/{cateId}?page={catePg}","分类": "BD有码$videos/bd-censored#BD无码$videos/bd-uncensored#有码$videos/censored#无码$videos/uncensored"}},
		{"key": "ThisAV","name": "ThisAV|XBPQ|外置","type": 3,"api": "csp_XBPQ","jar": "./lib/XBPQ.jar","style": {"type": "rect","ratio": 1.5},"ext": {"页面代理": "127.0.0.1:10172","主页url": "https://thisav.com/dm7/cn","直接播放": "1","数组": "class=\"relative aspect-w-16 aspect-h-9 rounded overflow-hidden shadow-lg\"&&</div>","图片": "class=\"lozad w-full\" data-src=\"&&\"","简介": "<title>&&</title>","标题": "alt=\"&&\"","副标题": "absolute bottom-1 right-1 rounded-lg px-2 py-1 text-xs text-nord5 bg-gray-800 bg-opacity-75\">&&</span>","链接": "href=\"&&\"","分类url": "https://thisav.com/{cateId}?page={catePg}","分类": "最近更新$dm509/cn/new#新作上市$dm504/cn/release#今日热门$dm242/cn/today-hot#本周热门$dm167/cn/weekly-hot#本月热门$dm206/cn/monthly-hot#中文字幕$dm265/cn/chinese-subtitle#无码流出$dm558/cn/uncensored-leak#SIRO$dm23/cn/siro#LUXU$dm23/cn/siro#GANA$dm23/cn/siro#PRESTIGE PREMIUM$dm14/cn/maan#S-CUTE$dm23/cn/scute#ARA$dm19/cn/ara#FC2$dm94/cn/fc2#HEYZO$dm621/cn/heyzo#东京热$dm29/cn/tokyohot#一本道$dm39925/cn/1pondo#Caribbeancom$dm75695/cn/caribbeancom#Caribbeancompr$dm1200/cn/caribbeancompr#10musume$dm39286/cn/10musume#pacopacomama$dm663/cn/pacopacomama#Gachinco$dm135/cn/gachinco#XXX-AV$dm25/cn/xxxav#人妻斩$dm24/cn/marriedslash#顽皮 4610$dm19/cn/naughty4610#顽皮 0930$dm22/cn/naughty0930#麻豆传媒$dm31/cn/madou#TWAV$dm17/cn/twav#Furuke$dm14/cn/furuke"}},
		{"key": "RJAV","name": "RJAV|XBPQ|外置","type": 3,"api": "csp_XBPQ","jar": "./lib/XBPQ.jar","style": {"type": "rect","ratio": 1.77},"ext": {"主页url": "https://rjav.tv/zh/","直接播放": "1","数组": "class=\"mb15\"&&</li>","图片": "src=\"&&\"","标题": "title=\"&&\"","链接": "href=\"&&\"","简介": "title>&&</title","主演": "name=\"keywords\" content=\"&&\"","分类url": "https://rjav.tv/zh/videotype/{cateId}-{catePg}/","分类": "FC2-PPV$FC2-PPV#日本無碼$JAV_Uncensored#馬賽克破壞$Mosaic_Removed#國產$Asian_Amateur#日本有碼$JAV_Censored#MGS動画$MGS#中文字幕$JAV+CHN.SUBs#動畫$Anime#歐美成人$Western_Porn#Korean BJ Dance$Korean_BJ_Dance#寫真$Adult_IDOL"}},
        {"key": "JAVSB","name": "JAVSB|XBPQ|外置","type": 3,"api": "csp_XBPQ","jar": "./lib/XBPQ.jar","ext": {"主页url": "https://jav.sb/","直接播放": "1","数组": "class=\"relative aspect-w-16 aspect-h-9 rounded overflow-hidden shadow-lg\"&&</div>","图片": "data-src=\"&&\"","标题": "alt=\"&&\"","链接": "href=\"&&\"","分类url": "https://jav.sb/javtype/{cateId}-{catePg}.html","分类": "日本有碼$Censored#日本無碼$Uncensored#FC2-PPV$FC2-PPV#無碼破解$Mosaic_Removed#中文字幕$CHN_SUB#MGS動画$MGS#寫真$Adult_IDOL#國產$Asian_Amateur"}},
		{"key": "csp_MissAV_XBPQ","name": "MissAV|XBPQ|外置","type": 3,"api": "csp_XBPQ","jar": "./lib/XBPQ.jar","playerType": "2","quickSearch": 1,"style": {"type": "rect","ratio": 1.485},"searchable": 1,"ext": {"请求头": "User-Agent$MOBILE_UA","编码": "UTF-8","主页url": "https://missav.ws/dm10/cn","数组": "\"lozad&&</div>[不包含:item.dvd_id]","图片": "src=\"&&\"","标题": "alt=\"&&\"","副标题": "<span class=\"absolute*>&&</span","简介": "keywords\" content=\"&&\"","链接": "href=\"&&\"","搜索url": "https://missav.ws/ws/search/{wd}?page={pg}","分类url": "https://missav.ws/{cateId}?page={catePg};;z","分类": "中文字幕$dm265/cn/chinese-subtitle#最近更新$dm509/cn/new#新作上市$dm504/cn/release#无码流出$dm558/cn/uncensored-leak#VR$cn/genres/VR#今日热门$dm242/cn/today-hot#本週热门$dm167/cn/weekly-hot#本月热门$dm206/cn/monthly-hot#SIRO$dm23/cn/siro#LUXU$dm20/cn/luxu#GANA$dm17/cn/gana#PRESTIGE PREMIUM$dm14/cn/maan#S-CUTE$dm23/cn/scute#ARA$dm19/cn/ara#无码流出$dm558/cn/uncensored-leak#FC2$dm94/cn/fc2#HEYZO$dm621/cn/heyzo#东京热$dm29/cn/tokyohot#一本道$dm39925/cn/1pondo#Caribbeancom$dm75695/cn/caribbeancom#Caribbeancompr$dm1200/cn/caribbeancompr#10musume$dm39286/cn/10musume#pacopacomama$dm663/cn/pacopacomama#Gachinco$dm135/cn/gachinco#XXX-AV$dm25/cn/xxxav#人妻斩$dm24/cn/marriedslash#顽皮 4610$dm19/cn/naughty4610#顽皮 0930$dm22/cn/naughty0930#麻豆传媒$dm31/cn/madou#TWAV$dm17/cn/twav#Furuke$dm14/cn/furuke"}},
		{"key": "流氓兔","name": "🐇流氓┃兔兔","type": 3,"api": "csp_XBPQ","jar": "./lib/XBPQ.jar","searchable": 1,"quickSearch": 1,"filterable": 1,"ext": {"请求头": "User-Agent$MOBILE_UA","主页url": "https://fyu.lmt4.monster/cn/home/web/","数组": "<article>&&</article>","标题": "alt=\"&&\"","副标题": "actress\">&&</div>","图片": "img src=\"&&\"","链接": "href=\"&&\"","跳转播放链接": "var player_*\"url\":\"&&\"","简介": "description\" content=\"&&\"","搜索url": "https://fyu.lmt4.monster/cn/home/web/index.php/vod/search/page/{pg}/wd/{wd}.html","分类url": "https://fyu.lmt4.monster/cn/home/web/index.php/vod/type/id/{cateId}/page/{catePg}.html;;z","分类数组": "<a&&a>","分类标题": ">&&<","分类ID": "/cn/home/web/index.php/vod/type/id/&&.html"}},
        {"key": "果冻破解版","name": "🍮果冻┃破解","type": 3,"api": "csp_XBPQ","jar": "./lib/XBPQ.jar","searchable": 1,"quickSearch": 1,"filterable": 1,"ext": {"请求头": "User-Agent$MOBILE_UA","主页url": "https://zvz.gdpjb8.work/cn/home/web/","数组": "well well-sm&&/a>","标题": "m-t-5\">&&<","副标题": "duration\">&&</div>","图片": "img src=\"&&\"","链接": "href=\"&&\"","跳转播放链接": "var player_*\"url\":\"&&\"","简介": "description\" content=\"&&\"","搜索url": "https://zvz.gdpjb8.work/cn/home/web/index.php/vod/search/page/{pg}/wd/{wd}.html","分类url": "https://zvz.gdpjb8.work/cn/home/web/index.php/vod/type/id/{cateId}/page/{catePg}.html;;z","分类二次截取": "<ul>&&ul>","分类数组": "<a&&a>","分类标题": "title=\"&&\"","分类ID": "/cn/home/web/index.php/vod/type/id/&&.html"}},
        {"key": "百草香","name": "☘️百草┃视频","type": 3,"api": "csp_XBPQ","jar": "./lib/XBPQ.jar","searchable": 1,"quickSearch": 1,"filterable": 1,"ext": {"请求头": "User-Agent$MOBILE_UA","主页url": "https://kcd.bxc7.one/cn/home/web/","数组": "lazyload\"&&/a>","标题": "title=\"&&\"","图片": "data-original=\"&&\"","链接": "href=\"&&\"","跳转播放链接": "vod_play_url = '&&'","简介": "description\" content=\"&&\"","搜索url": "https://kcd.bxc7.one/s/{wd}/page/{pg}.html","分类url": "https://kcd.bxc7.one/vodtype/{cateId}-{catePg}.html;;z","分类二次截取": "<ul&&ul>","分类数组": "<a&&a>","分类标题": ">&&<","分类ID": "/vodtype/&&.html"}},
        {"key": "风流视频","name": "🤤风流┃视频","type": 3,"api": "csp_XBPQ","jar": "./lib/XBPQ.jar","searchable": 1,"quickSearch": 1,"filterable": 1,"ext": {"请求头": "User-Agent$MOBILE_UA","主页url": "https://djtzph.flsp8.cyou/cn/","数组": "container&&</li>","标题": "title=\"&&\"","图片": "src=\"&&\"","副标题": "icoplay\">&&</","链接": "href=\"&&\"","跳转播放链接": "vod_play_url = '&&'","简介": "description\" content=\"&&\"","搜索url": "https://djtzph.flsp8.cyou/s/{wd}/page/{pg}.html","分类url": "https://djtzph.flsp8.cyou/vodtype/{cateId}-{catePg}.html;;z","分类二次截取": "<ul>&&ul>","分类数组": "<a&&a>","分类标题": ">&&<","分类ID": "/vodtype/&&.html"}},

        {"key": "avge","name": "avge","type": 3,"api": "csp_XBPQ","jar": "./lib/XBPQ.jar","style": {"type": "rect","ratio": 1.5},"ext": {"主页url": "https://avgle.to","数组": "col-6 col-sm-4 col-lg-3\">&&class=\"sub-title&&</div>","图片": "data-src=\"&&\"","标题": "class=\"title\"><a*>&&</a>","链接": "<a href=\"&&\"","直接播放": "1","分类url": "http://avgle.to/zh/vtype/{cateId}-{catePg}.html","分类": "日本有碼$Censored#日本無碼$Uncensored#FC2-PPV$FC2-PPV#中文字幕$JAV_CHN.SUBs#有碼破壞$Mosaic_Removed#MGS動画$MGS#國產成人$Asian_Amateur#歐美成人$Western_Porn#寫真特級$Adult_IDOL#動畫$Anime"}},
		{"key": "MustJAV","name": "MustJAV","type": 3,"api": "csp_XBPQ","jar": "./lib/XBPQ.jar","style": {"type": "rect","ratio": 1.5},"ext": {"主页url": "https://mustjav.com/","直接播放": "1","数组": "class=\"video-elem\">&& class=\" sub-title&&</div>","图片": "style=\"&&></div>","标题": "title=\"&&\"","链接": "href=\"&&\"","分类url": "https://mustjav.com/type/{cateId}-page-{page}.html","分类": "有码$22#无码$23#自拍$24#国产$50#欧美$25#日本自拍$26#动画$38#虚拟实景$27"}},
		{"key": "微密猫","name": "微密猫","type": 3,"api": "csp_XBPQ","jar": "./lib/XBPQ.jar","ext": {"主页url": "https://maobao.vip/","首页": "无圣光视频$wushebgguang/无圣光视频","数组": "\"post grid\"&&\"post grid\"","图片": "src=\"&&\"","标题": "title=\"&&\"","副标题": "</i>&&</span>","链接": "href=\"&&\"","分类url": "https://maobao.vip/mid/{cateId}/page/{catePg};;z","分类": "无圣光视频$wushebgguang/无圣光视频#微密视频$weme/wmsp#森甜视频$stxl/stsp#网红视频$whxl/whsp"}    },
		{"key": "SOAV","name": "SOAV","type": 3,"api": "csp_XBPQ","jar": "./lib/XBPQ.jar","style": {"type": "rect","ratio": 1.5},"ext": {"主页url": "https://www.wantav.co/","搜索url": "https://777080.xyz/?s={wd}","数组": "data-video-uid=&&</div>","图片": "data-src=\"&&\"","标题": "alt=\"&&\"","副标题": "</i>&&</span>","链接": "href=\"&&\"","简介": "⚠️少看点，再看你就废了！！！","分类url": "https://777080.xyz/category/{cateId}/page/{catePg}/;;z","分类": "國產精選$國產精選#探花約炮$探花約炮#日韓影片$日韓影片#無碼素人$無碼素人#歐美專區$歐美專區#中字動漫$中字動漫"}},
		{"key": "Bi8TV","name": "Bi8TV","type": 3,"api": "csp_XBPQ","jar": "./lib/XBPQ.jar","style": {"type": "rect","ratio": 1.485},"ext": {"主页url": "https://v3.bi888.link/","直接播放": "1","图片": "img src=\"&&\"","标题": "alt=\"&&\"","链接": "href=\"&&\"","分类url": "https://v3.bi888.link/vodtype/{cateId}-{catePg}.html","分类": "精品推荐$20#国产精品$21#日韩精品$22#欧美精品$23#中文字幕$24#日韩无码$25#日韩有码$26#网红主播$27#卡通动漫$28#探花系列$29#SM重味$30#自拍偷拍$31#强奸乱伦$32#口交视频$33#自慰系列$34#教师学生$35#3P合辑$36#巨乳系列$37#颜射系列$38#制服诱惑$39#萝莉少女$40#人兽之恋$41#人妻熟女$42#女同性恋$43#稀缺资源$45#三级伦理$44#空姐模特$48#国产盗摄$49#人妖系列$50#虚拟VR$51"}},
		{"key": "Bi8TV2","name": "Bi8TV2","type": 3,"api": "csp_XBPQ","jar": "./lib/XBPQ.jar","style": {"type": "rect","ratio": 1.485},"ext": {"主页url": "https://v3.bi888.link/","直接播放": "1","图片": "img src=\"&&\"","标题": "alt=\"&&\"","链接": "href=\"&&\"","分类url": "https://v3.bi888.link/vodtype/{cateId}-{catePg}.html","分类": "精品推荐$20#国产精品$21#日韩精品$22#欧美精品$23#中文字幕$24#日韩无码$25#日韩有码$26#网红主播$27#卡通动漫$28#探花系列$29#SM重味$30#自拍偷拍$31#强奸乱伦$32#口交视频$33#自慰系列$34#教师学生$35#3P合辑$36#巨乳系列$37#颜射系列$38#制服诱惑$39#萝莉少女$40#人兽之恋$41#人妻熟女$42#女同性恋$43#稀缺资源$45#三级伦理$44#空姐模特$48#国产盗摄$49#人妖系列$50#虚拟VR$51"}},
		{"key": "u9a9PQ","name": "u9a9PQ","type": 3,"api": "csp_XBPQ","jar": "./lib/XBPQ.jar","style": {"type": "list"},"ext": {"搜索url": "https://e.u9a9e.xyz/?type=1&search={wd}&p={pg}","数组": "<tr&&</tr>","简介": "Date:</div>&&</","图片": " ","播放二次截取": "panel-footer clearfix&&</div>","播放数组": "<a&&</a>[不包含:Torrent#filecove]","分类": "DHT网络$1","分类url": "https://e.u9a9e.xyz/?type={cateId}&p={catePg};;m"}},
		{"key": "R撸巴","name": "R撸吧","type": 3,"api": "csp_XBPQ","jar": "./lib/XBPQ.jar","searchable": 1,"quickSearch":1,"changeable": 1,"filterable": 1,"timeout":120,"ext": {"数组": "img-box cover-md\"&&<p class=\"sub-title\">","标题": ">&&</a></h6>","图片": "data-src=\"&&\"","副标题":"✨多看少撸✨","链接": "href=\"&&\"","分类url": "https://www.rluba-mod.sbs/index.php/vodtype/{cateId}-{catePg}.html;;z","分类": "卡通动漫$49#无码中文$34#强奸中文$35#巨乳中文$36#乱伦中文$37#制服中文$38#人妻中文$39#调教中文$40#出轨中文$41#中文字幕$59#欧美性爱$29#性爱音乐视频-PMV$93#人兽$30#人妖$31#MomsTeachSex$95#男同$32#女同$33#Fake Taxi$83#Barzzers$87#Wow Girls$117#FamilyStrokes$116#骑兵有码$27#步兵无码$28#制服师生$50#强奸乱伦$51#人妻熟女$53#三级剧情$55#丝袜美腿$56#亚洲情色$58#麻豆视频$161#91制片厂$162#天美传媒$163#蜜桃传媒$164#皇家华人$165#星空传媒$166#精东影业$167#大象传媒$168#91茄子$169#性视界传媒$170#兔子先生$171#杏吧原创$172#香蕉传媒$174#SA国际传媒$175#EDmosaic$176#PsychoPorn$177#糖心Vlog$178#葫芦影业$179#果冻传媒$180#国产精品$10#精品三级$11#主播大秀$12#抖阴视频$13#国模私拍$14#颜射瞬间$15#女神学生$16#美熟少妇$17#娇妻素人$18#空姐模特$19#国产乱伦$20#专题$26#自慰群交$21#野合车震$22#职场同事$23#国产名人$24#网曝门事件$25#偷拍自拍$57#北京天使$119"}},
		{"key": "TaiAv","name": "taiav","type": 3,"api": "csp_XBPQ","jar": "./lib/XBPQ.jar","style": {"type": "rect","ratio": 1.5},"ext": {"主页url": "https://taiav.com/","搜索url": "https://taiav.com/search?q={wd}","数组": "uk-card-media-top\"&&</a>","图片": "src=\"&&\"","标题": "alt=\"&&\"","副标题": "</span>&&</div>","链接": "href=\"&&\"","分类url": "https://taiav.com/cn/category/{cateId}?page={catePg};;z","分类": "国产AV$国产AV#网红主播$网红主播#有码$有码#无码$无码"}},
		{"key": "浮力ASMR","name": "浮力ASMR","type": 3,"jar": "./lib/XBPQ.jar","api": "csp_XBPQ","style": {"type": "rect","ratio": 1.5},"ext": {"首页 ": "浮力ASMR$/","主页url": "https://flasmr.lol/","分类url": "https://flasmr.lol/page/{catePg}/[https://flasmr.lol/];;z","分类": "浮力ASMR$/"}},
		{"key": " AV影院","name": " AV影院","type": 3,"jar": "./lib/XBPQ.jar","api": "csp_XBPQ","searchable": 1,"quickSearch": 1,"filterable": 1,"ext": {"图片":"data-src=\"&&\"","标题": "title=\"&&\"","链接": "href=\"&&\"","主页url": "https://wyaslcwgroup.cfd/","分类":"国产视频$1#主播$2#黑料$3#中文$6#国产传媒$7#制服$12#抖音$15#三级$17#AV解说$18#日本有码$8#日本无码$9#强奸乱轮$11#动漫$13#明星换脸$14#女优明星$16","分类url": "https://wyaslcwgroup.cfd/index.php/vod/type/id/{cateId}/page/{catePg}.html"}},

		{"key": "pttred","name": "PTT | 影视","type": 3,"api": "csp_XBPQ","searchable": 1,"quickSearch": 1,"filterable": 1,"jar": "./lib/XBPQ.jar","ext": "./lib/pttred.json"},
		{"key": "麻豆","name": "麻豆 | XBPQ | ✔","type": 3,"changeable": 1,"searchable": 1,"quickSearch": 1,"filterable": 1,"jar": "./lib/XBPQZ.jar","api": "csp_XBPQ","style": {"ratio": 1.7},"ext": { "搜索url":"http://gcmd.cc/index.php/vod/search/page/{pg}/wd/{wd}.html","分类": "日本视频$1#麻豆视频$2","分类url": "http://gcmd.cc/index.php/vod/show/class/{class}/id/{cateId}/page/{catePg}.html","直接播放":"1"}},
		{"key": "麻豆2","name":"麻豆 | 采集","type":1,"api":"http://127.0.0.1:10079/p/0/proxy/https://www.md91.cc/api.php/provide/vod/","playUrl": "json:http://127.0.0.1:10079/parse/?thread=0&proxy=proxy&url=","style":{"ratio":1.7}},
		
		{"key": "avtoday","name": "avtoday","type": 3,"api": "./drpy_libs/drpy2.min.js","searchable": 1,"quickSearch": 1,"filterable": 1,"time":60,"ext": "./drpy_js/avtoday.js"},
		{"key": "xvideos","name": "xvideos","type": 3,"api": "./drpy_libs/drpy2.min.js","searchable": 1,"quickSearch": 1,"filterable": 1,"time":60,"ext": "./drpy_js/xvideos.js"},

		{"key": "4kav","name": "4kav","type": 3,"api": "./drpy_libs/drpy2.min.js","searchable": 1,"quickSearch": 1,"filterable": 1,"time":60,"ext": "./drpy_js/4kav.js"},

		{"key": "采集之王","name": "采集之王","type": 3,"api": "./drpy_libs/drpy2.min.js","searchable": 1,"quickSearch": 1,"filterable": 1,"order_num": 210,"ext": "./drpy_js/采集之王.js?type=url&params=./drpy_js/采集静态.json"},
		{"key": "pornhub","name": "pornhub","type": 3,"api": "./drpy_libs/drpy2.min.js","searchable": 1,"quickSearch": 1,"filterable": 1,"time":60,"ext": "./drpy_js/porn.js"},
		{"key": "小女子","name": "小女子","type": 3,"api": "./drpy_libs/drpy2.min.js","searchable": 1,"quickSearch": 1,"filterable": 1,"time":60,"ext": "./drpy_js/小女子.js"},

		{"key": "版本信息","name": "版本｜信息","type": 3,"api": "csp_Market","searchable": 0,"changeable": 0,"indexs": 0,"ext": "https://d.kstore.dev/download/11474/market.json"}
	],
	"lives":[
		{"name": "自用直播","type": 0,"url": "http://i.ibread.icu:5432/d/Config/live/tvlive.txt","playerType": 1,"ua": "okhttp/3.15","epg": "http://epg.112114.xyz/?ch={name}&date={date}","logo": "https://epg.112114.xyz/logo/{name}.png","timeout": 10},
		{"name": "自用NSFW","url":"http://i.ibread.icu:5432/d/Config/live/NSFW.txt","timeout": 30},
		{"name": "随机NSFW1","url":"https://orrz.alwaysdata.net/video.m3u ","timeout": 30},
		{"name": "随机NSFW2","url":"https://orrz.alwaysdata.net/video.txt","timeout": 30},
		{"name": "YanG-1989NSFW订阅","type": 0,"url": "https://tv.iill.top/m3u/Adult","playerType": 1,"ua": "okhttp/3.15","epg": "http://epg.112114.xyz/?ch={name}&date={date}","logo": "https://epg.112114.xyz/logo/{name}.png","timeout": 10},
		{"name": "YTLive","type": 0,"playerType": 1,"url": "http://i.ibread.icu:5432/d/Config/live/yo21.txt"},

		{"name":"4GTV","url":"http://45.207.209.177:10188/4gtv.m3u","timeout": 10},
		{"name":"stream直播","url":"https://www.stream-link.org/stream-link.m3u","timeout": 10},
		{"name":"GatherAdult","url":"https://tv.iill.top/m3u/Adult","timeout": 10},
		{"name": "live福利", "url": "./live/live福利.txt","timeout": 10},
		{"name": "十八禁", "url": "./live/十八禁.txt","timeout": 10},
		{"name": "wex", "url": "./live/wex.txt","timeout": 10},
		{"name": "新建 文本文档", "url": "./live/新建 文本文档.txt","timeout": 10},
		{"name": "国产传媒", "url": "./live/国产传媒.m3u","timeout": 10},
		{"name": "筱田优有码", "url": "./live/筱田优有码.txt","timeout": 10},
		{"name": "pron", "url": "./live/pron.m3u","timeout": 10},
		{"name": "天美传媒816", "url": "./live/天美传媒816.txt","timeout": 10},
		{"name": "aatv", "url": "./live/aatv.txt","timeout": 10},
		{"name": "高清图标", "url": "./live/高清图标.m3u","timeout": 10},
		{"name": "哦买嘎", "url": "./live/哦买嘎.m3u","timeout": 10},
		{"name": "哦买嘎", "url": "./live/哦买嘎.txt","timeout": 10},
		{"name": "181818", "url": "./live/181818.txt","timeout": 10},
		{"name": "麻倉憂无码", "url": "./live/麻倉憂无码.txt","timeout": 10},
		{"name": "做爱大全", "url": "./live/做爱大全.txt","timeout": 10},
		{"name": "live18", "url": "./live/live18.txt","timeout": 10},
		{"name": "达人", "url": "./live/达人.txt","timeout": 10},
		{"name": "花活", "url": "./live/花活.txt","timeout": 10},
		{"name": "麻豆", "url": "./live/麻豆.txt","timeout": 10},
		{"name": "天美传媒", "url": "./live/天美传媒.txt","timeout": 10},
		{"name": "成人传媒", "url": "./live/成人传媒.txt","timeout": 10},
		{"name": "前田かおり无码", "url": "./live/前田かおり无码.txt","timeout": 10},
		{"name": "11", "url": "./live/11.txt","timeout": 10},
		{"name": "18资源丰富", "url": "./live/18资源丰富.txt","timeout": 10},
		{"name": "糖意", "url": "./live/糖意.txt","timeout": 10},
		{"name": "188", "url": "./live/188.txt","timeout": 10},
		{"name": "VIP频道816", "url": "./live/VIP频道816.txt","timeout": 10},
		{"name": "几个传媒", "url": "./live/几个传媒.txt","timeout": 10},
		{"name": "尾野真知子无码 ed2k", "url": "./live/尾野真知子无码 ed2k.txt","timeout": 10},
		{"name": "色南国", "url": "./live/色南国.txt","timeout": 10},
		{"name": "18zb直播源", "url": "./live/18zb直播源.txt","timeout": 10},
		{"name": "至尊", "url": "./live/至尊.m3u","timeout": 10},
		{"name": "成人点播", "url": "./live/成人点播.m3u","timeout": 10},
		{"name": "终极", "url": "./live/终极.txt","timeout": 10},
		{"name": "9+9直播", "url": "./live/9+9直播.txt","timeout": 10},
		{"name": "唐艺", "url": "./live/唐艺.txt","timeout": 10},
		{"name": "Jable嗅探", "url": "./live/Jable嗅探.txt","timeout": 10},
		{"name": "vip源2", "url": "./live/vip源2.txt","timeout": 10},
		{"name": "vip源", "url": "./live/vip源.txt","timeout": 10},
		{"name": "果冻传媒816", "url": "./live/果冻传媒816.txt","timeout": 10},
		{"name": "维护成人", "url": "./live/维护成人.txt","timeout": 10},
		{"name": "冰姐是傻比", "url": "./live/冰姐是傻比.txt","timeout": 10},
		{"name": "2.5万", "url": "./live/2.5万.txt","timeout": 10},
		{"name": "麻豆传媒816", "url": "./live/麻豆传媒816.txt","timeout": 10},
		{"name": "坂口みほの无码", "url": "./live/坂口みほの无码.txt","timeout": 10},
		{"name": "18+", "url": "./live/18+.txt","timeout": 10},
		{"name": "木村つな无码", "url": "./live/木村つな无码.txt","timeout": 10},
		{"name": "上原亜衣无码", "url": "./live/上原亜衣无码.txt","timeout": 10},
		{"name": "好看的电影", "url": "./live/好看的电影.txt","timeout": 10},
		{"name": "全球", "url": "./live/全球.txt","timeout": 10},
		{"name": "星空传媒", "url": "./live/星空传媒.txt","timeout": 10},
		{"name": "绝品2", "url": "./live/绝品2.txt","timeout": 10},
		{"name": "xiaohei", "url": "./live/xiaohei.txt","timeout": 10},
		{"name": "涩涩", "url": "./live/涩涩.txt","timeout": 10},
		{"name": "大量", "url": "./live/大量.txt","timeout": 10},
		{"name": "vip2024", "url": "./live/vip2024.m3u","timeout": 10},
		{"name": "无敌", "url": "./live/无敌.m3u","timeout": 10},
		{"name": "VIP源_1", "url": "./live/VIP源_1.txt","timeout": 10},
		{"name": "筱田优无磁力", "url": "./live/筱田优无磁力.txt","timeout": 10},
		{"name": "A", "url": "./live/A.m3u","timeout": 10},
		{"name": "果冻传媒", "url": "./live/果冻传媒.txt","timeout": 10},
		{"name": "最强", "url": "./live/最强.txt","timeout": 10},
		{"name": "奈斯", "url": "./live/奈斯.txt","timeout": 10},
		{"name": "2", "url": "./live/2.txt","timeout": 10},
		{"name": "麻豆直播", "url": "./live/麻豆直播.txt","timeout": 10},
		{"name": "京东伟业", "url": "./live/京东伟业.txt","timeout": 10},
		{"name": "玩偶", "url": "./live/玩偶.txt","timeout": 10},
		{"name": "live", "url": "./live/live.txt","timeout": 10},
		{"name": "0", "url": "./live/0.m3u","timeout": 10},
		{"name": "经典", "url": "./live/经典.txt","timeout": 10},
		{"name": "梅林TV", "url": "./live/梅林TV.txt","timeout": 10},
		{"name": "18+2", "url": "./live/18+2.txt","timeout": 10},
		{"name": "立花里子无码", "url": "./live/立花里子无码.txt","timeout": 10},
		{"name": "星空传媒816", "url": "./live/星空传媒816.txt","timeout": 10},
		{"name": "VIP直播", "url": "./live/VIP直播.txt","timeout": 10},
		{"name": "精东影业816", "url": "./live/精东影业816.txt","timeout": 10},
		{"name": "筱田优省心版", "url": "./live/筱田优省心版.txt","timeout": 10},
		{"name": "黄藏-进阶", "url": "./live/黄藏-进阶.txt","timeout": 10},
		{"name": "9+9", "url": "./live/9+9.txt","timeout": 10},
		{"name": "发现", "url": "./live/发现.m3u","timeout": 10},
		{"name": "哥曲cr", "url": "./live/哥曲cr.txt","timeout": 10},
		{"name": "18zb", "url": "./live/18zb.txt","timeout": 10},
		{"name": "学习资料", "url": "./live/学习资料.txt","timeout": 10},
		{"name": "影视", "url": "./live/影视.txt","timeout": 10},
		{"name": "成人电影", "url": "./live/成人电影.txt","timeout": 10},
		{"name": "hello", "url": "./live/hello.txt","timeout": 10},
		{"name": "龙TV无密码", "url": "./live/龙TV无密码.txt","timeout": 10},
		{"name": "yuzhou", "url": "./live/yuzhou.txt","timeout": 10},
		{"name": "打开电视看电视", "url": "./live/打开电视看电视.txt","timeout": 10},
		{"name": "0218直播源", "url": "./live/0218直播源.txt","timeout": 10},
		{"name": "珍藏", "url": "./live/珍藏.m3u","timeout": 10},
		{"name": "18zb1", "url": "./live/18zb1.txt","timeout": 10},
		{"name": "绝品", "url": "./live/绝品.txt","timeout": 10},
		{"name": "m3u8源", "url": "./live/m3u8源.m3u","timeout": 10},
		{"name": "19", "url": "./live/19.txt","timeout": 10},
		{"name": "美腿丝袜", "url": "./live/美腿丝袜.m3u","timeout": 10},
		{"name": "333", "url": "./live/333.txt","timeout": 10}

	],
	"doh":[
		{"name": "Google","url": "https://dns.google/dns-query","ips": ["8.8.4.4","8.8.8.8"]},
		{"name": "Cloudflare","url": "https://cloudflare-dns.com/dns-query","ips": ["1.1.1.1","1.0.0.1","2606:4700:4700::1111","2606:4700:4700::1001"]},
		{"name": "AdGuard","url": "https://dns.adguard.com/dns-query","ips": ["94.140.14.140","94.140.14.141"]},
		{"name": "DNSWatch","url": "https://resolver2.dns.watch/dns-query","ips": ["84.200.69.80","84.200.70.40"]},
		{"name": "Quad9","url": "https://dns.quad9.net/dns-quer","ips": ["9.9.9.9","149.112.112.112"]}],
    "rules":[
		{"name": "proxy",
		"hosts": [
			"raw.githubusercontent.com",
			"googlevideo.com",
			"cdn.v82u1l.com",
			"cdn.iz8qkg.com",
			"cdn.kin6c1.com",
			"c.biggggg.com",
			"c.olddddd.com",
			"haiwaikan.com",
			"www.histar.tv",
			"youtube.com",
			"uhibo.com",
			".*boku.*",
			".*nivod.*",
			"*.t4tv.hz.cz",
			".*ulivetv.*",
            "wogg.link",
            "wogg.xyz",
            "*.czzy77.*",
            "*surrit.com*",
            "hanime1.me",
            "dm84.tv",
			"cfnode.ibread.icu",
            "javdb*.com/*",
            "jable.tv",
            "*.missav.com*",
            "mjv002.*",
            "hongkongdollvideo.*",
            "*.zhaoziyuan.*",
            "*.googlevideo.com.*",
            "pta.9a07g.com/*",
            "infmbln.info",
            "5view.shop/*",
            "cn.xvideos2.uk",
            "pianku.api.mgtv.com/*",
            "www.cld296.top/*",
            "api.3bmmjla.life/*",
            "rouva1.xyz/*",
			"ddys.pro/*",
			"iyhdmm.com/*",
			"*lldm.net/*",
			"www.lldm.net",
			"dm84.tv/*",
			"yjys.me/*",
			"ppp.porn/*",
			"*.ppp.porn*",
			"222av.me*",
			"041920.222av.me*",
			"www.golden06.com",
			"hsck779.cc*",
			"njav.tv/zh",
			"njav.tv/zh*",
			"supjav.*",
			"nowav.tv",
			"777809.xyz/*",
			"222av.me/*",
			"v3.bi888.link"
			]},
		{"name": "海外看","hosts": ["haiwaikan"],"regex": ["8.1748","10.0099","10.3333","16.0599"]},
		{"name": "暴風","hosts": ["bfzy"],"regex": ["#EXT-X-DISCONTINUITY\\r*\\n*#EXTINF:3,[\\s\\S]*?#EXT-X-DISCONTINUITY"]},
		{"name": "星星","hosts": ["aws.ulivetv.net"],"regex": ["#EXT-X-DISCONTINUITY\\r*\\n*#EXTINF:8,[\\s\\S]*?#EXT-X-DISCONTINUITY"]},
		{"name": "量子","hosts": ["vip.lz","hd.lz","v.cdnlz"],"regex": ["18.5333"]},
		{"name": "非凡","hosts": ["vip.ffzy","hd.ffzy"],"regex": ["25.0666","25.08"]},
		{"host":"www.djuu.com","rule":["mp4.djuu.com","m4a"]},{"host":"www.sharenice.net","rule":["huoshan.com","/item/video/"],"filter":[]},
		{"host":"www.sharenice.net","rule":["sovv.qianpailive.com","vid="],"filter":[]},
		{"host":"www.sharenice.net","rule":["douyin.com","/play/"]},
		{"host":"m.ysxs8.vip","rule":["ysting.ysxs8.vip:81","xmcdn.com"],"filter":[]},
		{"host":"hdmoli.com","rule":[".m3u8"]},{"host":"https://api.live.bilibili.com","rule":["bilivideo.com","/index.m3u8"],"filter":["data.bilibili.com/log/web","i0.hdslb.com/bfs/live/"]},
		{"host":"www.agemys.cc","rule":["cdn-tos","obj/tos-cn"]},
		{"host":"www.fun4k.com","rule":["https://hd.ijycnd.com/play","index.m3u8"]},
		{"host":"zjmiao.com","rule":["play.videomiao.vip/API.php","time=","key=","path="]},
		{"name": "火山嗅探","hosts": ["huoshan.com"],"regex": ["item_id="]},
		{"name": "抖音嗅探","hosts": ["douyin.com"],"regex": ["is_play_url="]},
		{"name": "農民嗅探","hosts": ["toutiaovod.com"],"regex": ["video/tos/cn"]},
		{"name": "夜市","hosts": ["yeslivetv.com"],"script": ["document.getElementsByClassName('vjs-big-play-button')[0].click()"]},
		{"name": "毛驢","hosts": ["www.maolvys.com"],"script": ["document.getElementsByClassName('swal-button swal-button--confirm')[0].click()"]},
		{"name": "磁力广告","hosts": ["magnet"],"regex": ["更多","社 區","x u u","最 新","直 播","更 新","社 区","有 趣","英皇体育","全中文AV在线","澳门皇冠赌场","哥哥快来","美女荷官","裸聊","新片首发","UUE29"]}
		],
	"parses":[
		{"name": "聚合","type": 3,"url": "Demo"},
		{"name": "web","type": 3,"url": "Web"},
		{"name":"看看","type":0,"url":"https://jx.m3u8.pw/?url=","header": {"User-Agent": "okhttp/4.1.0"}},
		{"name":"FreeOK","type":0,"url":"https://play.86516.tk/OKPlayer/?url=","header": {"User-Agent": "okhttp/4.1.0"}},
		{"name":"free","type":0,"url":"https://h5.freejson.xyz/player/?url=","header": {"User-Agent": "okhttp/4.1.0"}},
		{"name":"-虾米-","type":0,"url":"https://jx.xmflv.com/?url=","header": {"User-Agent": "okhttp/4.1.0"}},
		{"name":"-虾米2-","type":0,"url":"https://jx.xmflv.cc/?url=","header": {"User-Agent": "okhttp/4.1.0"}},
		{"name": "巧技","type": 1,"url": "http://pan.qiaoji8.com/tvbox/neibu.php?url=","header": {"User-Agent": "okhttp/4.9.1"}},
		{"name": "巧技二","type": 1,"url": "http://pan.qiaoji8.com/tvbox/gouzi.php?url=","header": {"User-Agent": "okhttp/4.9.1"}}
		],
	"flags":["youku","qq","iqiyi","qiyi","letv","sohu","tudou","pptv","mgtv","wasu"]

}