{
    "token":"a347cec852864223b9579af7e7f9aae2",
    "open_token":"",
    "open_api_url":"postparam|http://api.extscreen.com/aliyundrive/token",
    "oauth_client_id":"",
    "oauth_client_secret":"",
    "oauth_auth_url":"", 
    "oauth_refresh_url":"",

    "thread_limit":32,
    "is_vip":true,
    "vip_thread_limit":10,
    "vod_flags":"4kz|auto",

    "uc_cookie":"UDRIVE_TRANSFER_SESS=UpLXXX2HAXJNW0AHgDcMuognzIEslJFfOVGhWahlhvazfg4ISA8bbJq1yrt-uYzAqDSC3HDPLjog-iiDJurmyOsNmZ1kXcNPxcZzbQtoglt4Sg-wEerEn0yplkHacGOUrLczOOS3XWvrejRb3UUY--Bj0oC8WOU5SbOM6Kb9w3cWeXGdKBp3Op3MI28H6DGj; b-user-id=5df75340-6400-62fa-86a4-d294c264e652; __itrace_wid=b7f59b5b-a2b1-474c-99d1-6c04cc02660e; _UP_A4A_11_=wb9c51b6ca054259b08ba3cd0e299748; __kps=AARtZrt28NcD5YpfCMR6pep2; __ktd=quVG8zR5yzp6kkFyjr840Q==; __uid=AARtZrt28NcD5YpfCMR6pep2; ctoken=D588Pnthm2F3cpU9ulkRA2ff; __puus=3de2cafba8d50af7299064181b4fe3cdAARbHn/IPw2drrlJC3uAa0ULi4e3/e6KTQR6FgH+ISG+VVXJrtmKMq9OsWKPftyBCXObH2UBBBkGNs9Rj14U7/dBu8pxASqw7tK4yA5w654fcZsbnwkobc4bvWGbigcr+zbwv0aFG894+rYsBIv+fUj9ylX8XpGDdSh3D8AMWnzwb3yGiodRqWjt/XO8FprXxqU=; _UP_28A_52_=381; _UP_F7E_8D_=1h1S63w5LTM1FMmpjeaMFUPwKLOVbxJPcg0RzQPI6KmBtV6ZMgPh38l93pgubgHDQqhaZ2Sfc0qv%2BRantbfg1mWGAUpRMP4RqXP78Wvu%2FCfvkWWGc5NhCTV71tGOIGgDBR3%2Bu6%2Fjj448WcvW%2BrZF8zSOgN6PwCu4djkhOclrgipqYAbrjqRo9YuUE9%2Fs5crDEn21dZLBeV9Lyj2lGliB0GCHyvfm3aXn9vPpf%2BTijjEt1nVSyEeRxSU1VZu4DtwRoAg3J36dS9aj1m9P204NQdNf5Nyo3ldtw6TWtrcg0yJducQVbH%2BT5yM6TQ0ySWQ88mFyMhj2VouQ%2B%2BFKM%2B0tL1ggY93VJqD%2B4TcIKPJt0MLG49JwF4%2FlKaxIvk7CLNVTZPG%2BMXyVR0GjxobkrXAZ3eIMTE7RyZru; _UP_D_=pc; __pus=0de40015c3210d3b54e2b94bcf38e4e0AAQ5t0vZrfT4y8MOJZNgO6AGPLwPYzaeiaZ9LGFPmkujmLSoJmkxmZKUqLh2qcOMhSYWyp0zgof83Qn9eFmTuqOd; __kp=1c12c280-e166-11ef-a556-1d6c539f16a8",
    "uc_thread_limit":0,
    "uc_is_vip":false,
    "uc_vip_thread_limit":0,
    "uc_flags":"4kz|auto",


    "aliproxy":"",
    "aliproxy_url":"",
    "proxy":"",
    "danmu":true,

    "quark_cookie":"__pus=e433c128009bb81e74f74cce00a7d7beAARWVrQqVpwlUXwnRthAb2mO2FfzPrjAtdWKRhajGd1yK8V4Yzzb3R+abRXXtU2vUREikUnEDAYeY6CLk5aEIf8r;",
    "quark_danmu":true,
    "quark_thread_limit":32,
    "quark_is_vip":false,
    "quark_vip_thread_limit":32,
    "quark_flags":"4kz|auto",

    "thunder_username":"+86 17689403104",
    "thunder_password":"Zh59420..",
    "thunder_captchatoken":"ck0.IJ03oFK42l-yZOGCWp783thHPHbXIlgLq9NtunOLcNFBa0hN6eLXEGlMs2mw2SqIViRryve1_SBEIwzEr0f3A3VTn91Vg2UbnqWLW1vQjMRa8GgaRhhGp8z-LbM-s9dsD_J-9jBvBSQ6ctt75O1TwqelawZe67LndSAWwVU1zXmj-v3SAEUaoQS2w3GWF3cDq2eQnDJoz2B9RRYmGjPpLDEGr910i8DTW8h__C5nLVMobIdAgrMMm202iZm50pEKLeURnaeuY1aDg9aZeZN1KV0xOTEkke16NXgz03a4Tz3vTZGtYuAbOXN1ni3u_yOSzi1uBeulZQNGwrX5POEkjXcdT6JKi08hxm76_91E3dc.CmUItu-Fuf4xEhBYcDZ2c3h6XzdJWVZ3MkJCGgs3LjUxLjAuODE5NiIbY29tLnh1bmxlaS5kb3dubG9hZHByb3ZpZGVyKiAyNzZmNTUwODVjOWRiYzA2YTM0ZjFiZDQzYzY1YzczMhKAAaL6J_YyvLG1BfIcOo-whNpWi0Ph1p1Nk6AydRNqdQX9h-jklChfW3xtexP_DfCWxQwnbF6jI7WDusyiVV0k1AWHfDVHO62hXPeJMFMpeYsAEbMJIiZDG1Ibtup1IV0DOQryhqw0ahdfpBD_cuHXjl1vSsoRADvEs3XAVIsyMy3Q",
    "thunder_thread_limit":2,
    "thunder_is_vip":false,
    "thunder_vip_thread_limit":2,
    "thunder_flags":"4k|4kz|auto",

    "yd_auth":"",
    "yd_thread_limit":4,
    "yd_flags":"auto|4kz",
    "yd_danmu":true,

    "pikpak_username":"393848760@qq.com",
    "pikpak_password":"as1314520",
    "pikpak_captchatoken":"ck0.z3aIEJGM0QuPTzlKq3862SRMaOvnD8jJwpa7jP8v21gTzvqgrYN0_HyiAS2_yUxdjKVMh-gYMHqrG_cQNGbtVF-BW9jV2Duh2wGdsQ-Xby9f0zKpw1FtdP7yXq6-7uQeHZG3oPMQ1VmFtMdkfU9XNsekx2TSs2bpLMMEf7LFCMTxPIlUEMxZcZ-VsLgtZ-Q2yeRdAggoA5SBJJ4RprGiYifqbCtuDb91VDgdLnWkUZI",
    "pikpak_flags":"4k|auto",
    "pikpak_thread_limit":2,
    "pikpak_vip_thread_limit":2,
    "pikpak_proxy":true,
    "pikpak_proxy_onlyapi":false,
    "pikpak_danmu":true,

    "wgcf_key":"QIBfGV12svmMnBSscHG9J1y60/LowxeSRfoQQwoENHo=",
    "wgcf_key2":"IAOtqrZ9vAT+nlJVbIBXWBBQ6gbAqDl7AiuqgQ0UKVY=",
    "wgcf_ipport":"188.114.97.171:943",
    "wgcf_xray_url":"./xray.gz",
    "wgcf_geoip_url":"./geoip.dat.gz",
    "wgcf_json_url":"./wgcf.json",
    "wgcf_vless_id":"d342d11e-d424-4583-b36e-524ab1f0afa4",
    "wgcf_vless_optname":"alist-proxy.ibread.icu:443",
    "wgcf_vless_worker":"cf2.iowt.eu.org",
    "wgcf_vless_path":"/?ed=2048",
    "wgcf_vless_protocol":"vless",
    "wgcf_vless_network":"ws",
    "wgcf_vless_tls":false,
    "libxl_url":"./libxl_thunder_sdk.so",

    "youtube_proxy":"proxy",

    "singbox_url":"./sing-box.tar.xz",
    "singbox_subscribe_url":"https://gitlab.com/api/v4/projects/iowt%2FMyConf/repository/files/Clash%2Fbox2.json/raw?ref=main&private_token=glpat-TwbbpPfzxnkYKsea-Zgm",
    "singbox_clash2singbox_url":"./clash2singbox.tar.xz",
    "singbox_template_url":"./singbox.json",
    "singbox_wgcf_json_url":"./wgcf2singbox.json",

    "pan115_cookie":"UID=25591065_F1_1738375722;CID=7b4a2d755702cc98b0f83936f75258cb;SEID=4cdcfa9b7105f01e03d562807b44b3fac0a2e7a91f0f5f0654d6f01255ffd28507c1fc4e6ef5e647637f71b276c6fb26f063882e2b06be0309941b7e;KID=ad341e6a21f7922d9077cb8fc428834e;115_lang=zh",
    "pan115_thread_limit":0,
    "pan115_vip_thread_limit":0,
    "pan115_is_vip":false,
    "pan115_flags":"4kz",
    "pan115_speed_limit":0,
    "pan115_speed_limit_mobile":10485760,
    "pan115_auto_delete":false,
    "pan115_delete_code":"511557",
    "pan_order":"ali|quark|uc|115|yd|thunder|pikpak",
    
    "tgsearch_url":"./tgsearch.tar.xz",
    "tgsearch_api_id":"20434278",
    "tgsearch_api_hash":"39f34eb9581cd33f36ba8c38b1800faa",
    "tgsearch_api_session":"eyJweS9vYmplY3QiOiAidGVsZXRob24uX2ltcGwuc2Vzc2lvbi5zZXNzaW9uLlNlc3Npb24iLCAiZGNzIjogW3sicHkvb2JqZWN0IjogInRlbGV0aG9uLl9pbXBsLnNlc3Npb24uc2Vzc2lvbi5EYXRhQ2VudGVyIiwgImlkIjogNSwgImlwdjRfYWRkciI6ICI5MS4xMDguNTYuMTI4OjQ0MyIsICJpcHY2X2FkZHIiOiBudWxsLCAiYXV0aCI6IHsicHkvYjY0IjogIkptNWhhQ1hRUGhuSGFDMjhvS1FyaHdxNVRxOE9xbFNTRVh6clAwV2FkWnJZSTRaZ2lTTk04UVJFbUkwNExHbFd5SGQ2dGNNcnc2allVVXF1TU80RlpKdWZVdFFRUWViendVYllHNmd1bkJEWVArc3grSll0dW0xM050M3IweXZ0eFZycWNKRU5WNHZ4cTI1cGVvQkQwVmJ6czg4RENyaUNiNmlLYldiekYrcS9mSGhkN2Z2dm1tYjZqc0RTZWxldGExVTVBQk1VWXBmTXZubjRRZFpucEQ5ZXJ5OWd0enlIM3V3Wnl5UEx5SGdzMzRMb0owQk1INHU0cHgrK01JOUYveWhlV3JMS2N2R29kcHdXK3kxVWthdmQ3bnlLTFppUUlnaDl5b2FMa25HNDJ3dy94bjU1ZnI3bjkxczBEcE5OWGdUeVJlendLRGlqWmcyZzBRRlVPUT09In19XSwgInVzZXIiOiB7InB5L29iamVjdCI6ICJ0ZWxldGhvbi5faW1wbC5zZXNzaW9uLnNlc3Npb24uVXNlciIsICJpZCI6IDU5MjcxMjQ0NywgImRjIjogNSwgImJvdCI6IGZhbHNlLCAidXNlcm5hbWUiOiBudWxsfSwgInN0YXRlIjoge319",
    "tgsearch_api_session_v1":"1BVtsOIABuyZuYWgl0D4Zx2gtvKCkK4cKuU6vDqpUkhF86z9FmnWa2COGYIkjTPEERJiNOCxpVsh3erXDK8Oo2FFKrjDuBWSbn1LUEEHm88FG2BuoLpwQ2D_rMfiWLbptdzbd69Mr7cVa6nCRDVeL8atuaXqAQ9FW87PPAwq4gm-oim1m8xfqv3x4Xe3775pm-o7A0npXrWtVOQATFGKXzL55-EHWZ6Q_Xq8vYLc8h97sGcsjy8h4LN-C6CdATB-LuKcfvjCPRf8oXlqyynLxqHacFvstVJGr3e58ii2YkCIIfcqGi5JxuNsMP8Z-eX6-5_dbNA6TTV4E8kXs8Cg4o2YNoNEBVDk=",
    "tgsearch_api_proxy":"proxy",
    "tgsearch_api_url":"http://127.0.0.1:10199/",
    "tgsearch_media_url":"http://127.0.0.1:10199/",
    "allinone_url":"./allinone.tar.xz"
}
